{
  "openapi": "3.0.3",
  "info": {
    "title": "API untuk GAMEKU",
    "description": "Ini adalah API collection untuk api gameku",
    "version": "1.0"
  },
  "servers": [
    {
      "url": "http://localhost:8000"
    }
  ],
  "paths": {
    "/users/registration": {
      "post": {
        "tags": [
          "users"
        ],
        "summary": "Api untuk registrasi",
        "description": "Deskripsi registrasi",
        "requestBody": {
          "content": {
            "application/json": {
              "schema": {
                "type": "object",
                "properties": {
                  "email": {
                    "type": "string",
                    "example": "example@gmail.com"
                  },
                  "username": {
                    "type": "string",
                    "example": "username1"
                  },
                  "password": {
                    "type": "string",
                    "example": "thepasswordÏ"
                  }
                }
              }
            }
          }
        },
        "responses": {
          "200": {
            "description": "Registrasi sukses"
          },
          "400": {
            "description": "request is failed"
          }
        }
      }
    },
    "/users/login": {
      "post": {
        "tags": [
          "users"
        ],
        "summary": "Api untuk login",
        "requestBody": {
          "content": {
            "application/json": {
              "schema": {
                "type": "object",
                "properties": {
                  "username": {
                    "type": "string",
                    "example": "username1"
                  },
                  "password": {
                    "type": "string",
                    "example": "thepasswordÏ"
                  }
                }
              }
            }
          }
        },
        "responses": {
          "200": {
            "description": "Login sukses",
            "content": {
              "application/json": {
                "schema": {
                  "type": "object",
                  "properties": {
                    "accessToken": {
                      "type": "string",
                      "example": "the token is here"
                    }
                  }
                }
              }
            }
          }
        }
      }
    },
    "/users/detail/{userId}": {
      "get": {
        "tags": [
          "users"
        ],
        "parameters": [
          {
            "name": "userId",
            "in": "path",
            "required": true,
            "schema": {
              "type": "string"
            }
          }
        ],
        "security": [
          {
            "bearerAuth": []
          }
        ],
        "responses": {
          "200": {
            "description": "Get customer success"
          }
        }
      }
    }
  },
  "components": {
    "securitySchemes": {
      "bearerAuth": {
        "type": "http",
        "scheme": "bearer",
        "bearerFormat": "JWT"
      }
    }
  }
}